<svg xmlns="http://www.w3.org/2000/svg" viewBox="0 0 181.4 45">
  <defs>
    <style>.cls-1{fill:#1c1d1f;}.cls-2{fill:#f60;}</style>
  </defs>
  <title>Asset 3</title>
  <g id="Layer_2" data-name="Layer 2">
    <g id="black">
      <path class="cls-1" d="M127.23,19.76a4.07,4.07,0,0,0-1.54-1.48,5.53,5.53,0,0,0-2.76-.58l-.91,0h0V31.52h0l.53,0h.37a5.79,5.79,0,0,0,2.75-.55,3.9,3.9,0,0,0,1.54-1.44,6.4,6.4,0,0,0,.79-2.24,16.53,16.53,0,0,0,.23-2.85,16.11,16.11,0,0,0-.2-2.58A6,6,0,0,0,127.23,19.76Z"/>
      <polygon class="cls-1" points="159.48 25.98 162.82 25.98 161.16 20.57 159.48 25.98"/>
      <path class="cls-1" d="M54.47,22.86c-.18,1.64-.38,3.12-.6,4.39s-.46,2.39-.7,3.32c-.09.37-.18.72-.27,1h4.92V18.22h-3C54.73,19.91,54.62,21.47,54.47,22.86Z"/>
      <path class="cls-1"
            d="M0,4.66V45H181.4V4.66ZM24.4,35.6H20.23V23L13.15,35.6H9.48V14.24h4.17V27l7.08-12.75H24.4Zm11.43,0a9,9,0,0,1-2.57-17.52v-2.7H33c-.33,0-.6-.19-.6-.43V14.6c0-.24.27-.43.6-.43h6.3c.33,0,.6.19.6.43v.32c0,.24-.27.43-.6.43H39.1v2.89a9,9,0,0,1-3.27,17.33ZM64,39.51H60.21V35.6H50.33v3.91H46.51v-7.9h2.08l.29-.82a26.87,26.87,0,0,0,.77-3.09c.28-1.36.53-3.08.76-5.14a67.14,67.14,0,0,0,.35-7.35v-1H62V31.61h2Zm10.08-3.92H70v-4.1h4.09Zm22-.3H91.91V22.75L89.5,26.89H87.73l-2.45-4V35.29H81.16V13.94h3.59l4,6.51,3.82-6.51h3.54Zm17.85,0H100.74V13.94h13.05v4h-8.88v4.43h8.2v4h-8.2v5h9Zm18.12-6.81a9.84,9.84,0,0,1-1.56,3.57,8.37,8.37,0,0,1-3,2.55,10.54,10.54,0,0,1-4.66.94h-.94c-.41,0-.81,0-1.21-.06l-1.11-.07a6.15,6.15,0,0,1-1-.1l-.77-.16V14.06l.83-.11c.72-.1,1.47-.16,2.24-.19s1.41,0,1.94,0a11.41,11.41,0,0,1,4.51.8,7.71,7.71,0,0,1,3.05,2.3A9.16,9.16,0,0,1,132,20.28a17.3,17.3,0,0,1,.48,4.2A18.71,18.71,0,0,1,132.05,28.48Zm17.59-10.56h-5.38V31.31h5.38v4H134.72v-4h5.36V17.92h-5.36v-4h14.92Zm16.19,17.37L164,29.91h-5.86l-1.72,5.38h-4.28l7-21.35h4.05l7,21.35Z"/>
      <rect class="cls-2" x="33.97" width="4.1" height="9.64"/>
      <path class="cls-2" d="M36,21.31a5.3,5.3,0,1,0,5.25,5.25A5.29,5.29,0,0,0,36,21.31Z"/>
    </g>
  </g>
</svg>
