<?xml version="1.0" encoding="utf-8"?>
<!-- Generator: Adobe Illustrator 22.1.0, SVG Export Plug-In . SVG Version: 6.00 Build 0)  -->
<svg version="1.1" id="Layer_1" xmlns="http://www.w3.org/2000/svg" xmlns:xlink="http://www.w3.org/1999/xlink" x="0px" y="0px"
	 viewBox="0 0 27.6 31.1" style="enable-background:new 0 0 27.6 31.1;" xml:space="preserve">
<style type="text/css">
	.st0{fill:#1C1D1F;}
</style>
<path class="st0" d="M25.8,13l-1-2.4c-0.1-0.2-0.1-0.3-0.2-0.5c-0.5-0.9-1.3-1.6-2.3-1.9C21.9,8.1,21.4,8,21,8
	c-0.6,0-1.1,0.1-1.6,0.3l-0.8-1.6c-0.4-0.9-1.1-1.5-2-1.9c-0.4-0.2-0.8-0.2-1.3-0.2s-1,0.1-1.4,0.3l-1,0.4c-0.2-0.3-0.5-0.5-0.8-0.6
	c-0.4-0.2-0.9-0.3-1.3-0.3c-0.5,0-1.1,0.1-1.7,0.4L8.6,5l-1-2.4C7,1.3,6,0.4,4.7,0.1C4.4,0,4.2,0,3.9,0C2.9,0,2,0.4,1.3,1
	C0,2.2-0.3,4.1,0.4,5.7l4.4,10c-0.1,0-0.2,0-0.3,0H4.3c-1.2,0-2.3,0.4-3,1c-0.1,0-0.1,0.1-0.2,0.2C0.3,17.7,0,18.6,0,19.7
	c0.1,1.2,0.8,2.4,2,3.5l9.7,7.6c0.2,0.2,0.5,0.3,0.7,0.3s0.3,0,0.5-0.1l13.9-6.1c0.4-0.2,0.7-0.6,0.7-1l0.1-1.2
	C27.8,19.4,27.2,16,25.8,13z M25.7,22.6v0.8l-13.1,5.7l-9.3-7.3C2.5,21.1,2,20.4,2,19.7c0-0.4,0.1-0.9,0.5-1.2c0,0,0,0,0.1-0.1
	c0.8-0.9,2.9-0.9,4-0.1L9,20.6c0.1,0.1,0.3,0.2,0.5,0.2s0.4-0.1,0.5-0.2c0.3-0.3,0.3-0.7,0-1l-2.5-2.3L2.2,5.1c-0.5-1.1,0-2,0.5-2.5
	C3.1,2.2,3.8,2,4.4,2.2C5.1,2.3,5.6,2.8,6,3.6l4,9.2c0.1,0.3,0.4,0.4,0.6,0.4c0.1,0,0.2,0,0.3-0.1c0.4-0.2,0.5-0.6,0.4-0.9L9.1,7.1
	l1-0.4c0.6-0.3,1.1-0.3,1.4-0.1c0.2,0.1,0.4,0.4,0.6,0.7l2.4,5.4c0.1,0.3,0.4,0.4,0.6,0.4c0.1,0,0.2,0,0.3-0.1
	c0.4-0.2,0.5-0.6,0.4-0.9l-2.1-4.8L15,6.7l0,0c0.4-0.2,0.8-0.2,1.2,0c0.4,0.2,0.7,0.5,0.9,0.9l2.8,6.5c0.1,0.3,0.4,0.4,0.6,0.4
	c0.1,0,0.2,0,0.3-0.1c0.4-0.2,0.5-0.6,0.4-0.9l-1.6-3.2l0.4-0.2c1.1-0.5,2.3,0,2.9,1c0.1,0.1,0.1,0.2,0.2,0.3l1,2.4
	C25.3,16.5,25.9,19.6,25.7,22.6z"/>
</svg>
